<?xml version="1.0" encoding="UTF-8" standalone="no"?>
<!DOCTYPE svg PUBLIC "-//W3C//DTD SVG 1.1//EN" "http://www.w3.org/Graphics/SVG/1.1/DTD/svg11.dtd">
<!-- Generated by Microsoft Visio, SVG Export process_diagram.svg Page-1 -->
<svg xmlns="http://www.w3.org/2000/svg" xmlns:xlink="http://www.w3.org/1999/xlink" xmlns:ev="http://www.w3.org/2001/xml-events"
		xmlns:v="http://schemas.microsoft.com/visio/2003/SVGExtensions/" width="11.6929in" height="8.26772in"
		viewBox="0 0 841.89 595.276" xml:space="preserve" color-interpolation-filters="sRGB" class="st12">
	<v:documentProperties v:langID="1033" v:metric="true" v:viewMarkup="false">
		<v:userDefs>
			<v:ud v:nameU="msvNoAutoConnect" v:val="VT0(1):26"/>
			<v:ud v:nameU="msvSubprocessMaster" v:prompt="" v:val="VT4(Multiple process)"/>
		</v:userDefs>
	</v:documentProperties>

	<style type="text/css">
	<![CDATA[
		.st1 {fill:#ffffff;stroke:#000000;stroke-linecap:round;stroke-linejoin:round;stroke-width:0.75}
		.st2 {fill:#ececec;stroke:#000000;stroke-linecap:butt;stroke-width:1.25}
		.st3 {fill:#ffffff;stroke:none;stroke-linecap:butt;stroke-width:7.2}
		.st4 {fill:#000000;font-family:Calibri;font-size:1.00001em}
		.st5 {fill:#000000;stroke:none;stroke-linecap:butt;stroke-width:0.75}
		.st6 {fill:#000000;font-family:Calibri;font-size:0.833336em}
		.st7 {font-size:1em}
		.st8 {marker-end:url(#mrkr4-42);stroke:#000000;stroke-linecap:round;stroke-linejoin:round;stroke-width:0.2376}
		.st9 {fill:#000000;fill-opacity:1;stroke:#000000;stroke-opacity:1;stroke-width:0.086161879895561}
		.st10 {fill:#000000;font-family:Symbol;font-size:0.833336em}
		.st11 {font-family:Calibri;font-size:1em}
		.st12 {fill:none;fill-rule:evenodd;font-size:12px;overflow:visible;stroke-linecap:square;stroke-miterlimit:3}
	]]>
	</style>

	<defs id="Markers">
		<g id="lend4">
			<path d="M 2 1 L 0 0 L 2 -1 L 2 1 " style="stroke:none"/>
		</g>
		<marker id="mrkr4-42" class="st9" v:arrowType="4" v:arrowSize="2" v:setback="23.2121" refX="-23.212121212121" orient="auto"
				markerUnits="strokeWidth" overflow="visible">
			<use xlink:href="#lend4" transform="scale(-11.606060606061,-11.606060606061) "/>
		</marker>
	</defs>
	<g v:mID="0" v:index="1" v:groupContext="foregroundPage">
		<v:userDefs>
			<v:ud v:nameU="msvThemeOrder" v:val="VT0(0):26"/>
		</v:userDefs>
		<title>Page-1</title>
		<v:pageProperties v:drawingScale="0.0393701" v:pageScale="0.0393701" v:drawingUnits="24" v:shadowOffsetX="8.50394"
				v:shadowOffsetY="-8.50394"/>
		<v:layer v:name="Flowchart" v:index="0"/>
		<v:layer v:name="Connector" v:index="1"/>
		<g id="shape1-1" v:mID="1" v:groupContext="shape" v:layerMember="0" transform="translate(178.284,-60.9449)">
			<title>Entity 1</title>
			<v:custProps>
				<v:cp v:nameU="Cost" v:lbl="Cost" v:type="7" v:format="@" v:langID="1033"/>
				<v:cp v:nameU="Duration" v:lbl="Duration" v:type="2" v:langID="1033"/>
				<v:cp v:nameU="Resources" v:lbl="Resources" v:langID="1033"/>
			</v:custProps>
			<v:userDefs>
				<v:ud v:nameU="AntiScale" v:val="VT0(1):26"/>
				<v:ud v:nameU="visVersion" v:val="VT0(15):26"/>
			</v:userDefs>
			<rect x="0" y="538.583" width="56.6929" height="56.6929" class="st1"/>
		</g>
		<g id="group2-3" transform="translate(635.528,-433.276)" v:mID="2" v:groupContext="group">
			<v:userDefs>
				<v:ud v:nameU="visDescription" v:val="VT4(Use to add a system boundary to your system diagram.)"/>
				<v:ud v:nameU="visVersion" v:val="VT0(15):26"/>
			</v:userDefs>
			<title>Boundary</title>
			<g id="shape3-4" v:mID="3" v:groupContext="shape">
				<title>Sheet.3</title>
				<desc>Wczytanie danych</desc>
				<v:userDefs>
					<v:ud v:nameU="visVersion" v:val="VT0(15):26"/>
				</v:userDefs>
				<v:textBlock v:margins="rect(4,4,4,4)" v:tabSpace="42.5197"/>
				<v:textRect cx="72" cy="451.276" width="126" height="18"/>
				<rect x="0" y="451.276" width="144" height="144" rx="9" ry="9" class="st2"/>
				<rect v:rectContext="textBkgnd" x="13.0001" y="444.076" width="88.6006" height="14.4001" class="st3"/>
				<text x="13" y="454.88" class="st4" v:langID="1045"><v:paragraph/><v:tabList/>Wczytanie danych</text>			</g>
		</g>
		<g id="shape4-8" v:mID="4" v:groupContext="shape" transform="translate(417.543,-72.8858)">
			<title>Process</title>
			<v:userDefs>
				<v:ud v:nameU="visDescription" v:val="VT4(Use to add a process to your system diagram.)"/>
				<v:ud v:nameU="visVersion" v:val="VT0(15):26"/>
			</v:userDefs>
			<rect x="0" y="554.776" width="72" height="40.5" class="st2"/>
		</g>
		<g id="shape10-10" v:mID="10" v:groupContext="shape" transform="translate(382.677,-85.0394)">
			<title>Forward</title>
			<v:userDefs>
				<v:ud v:nameU="msvShapeCategories" v:prompt="" v:val="VT4(Icon)"/>
				<v:ud v:nameU="visVersion" v:prompt="" v:val="VT0(15):26"/>
			</v:userDefs>
			<path d="M0 587.42 L0 592.66 L5.15 592.66 L5.15 595.28 L11.34 590.05 L5.15 584.8 L5.15 587.42 L0 587.42 Z" class="st5"/>
		</g>
		<g id="shape12-12" v:mID="12" v:groupContext="shape" transform="translate(345.379,1105.51) rotate(180)">
			<title>Simple Arrow</title>
			<v:userDefs>
				<v:ud v:nameU="visVersion" v:val="VT0(15):26"/>
				<v:ud v:nameU="ArrowType" v:prompt="" v:val="VT0(2):26"/>
			</v:userDefs>
			<path d="M0 595.28 L11.34 583.94 L11.34 589.61 L99.21 589.61 L99.21 595.28 L99.21 600.94 L11.34 600.94 L11.34 606.61
						 L0 595.28 Z" class="st1"/>
		</g>
		<g id="shape13-14" v:mID="13" v:groupContext="shape" v:layerMember="0" transform="translate(56.6929,-70.8661)">
			<title>Entity 1.13</title>
			<v:custProps>
				<v:cp v:nameU="Cost" v:lbl="Cost" v:type="7" v:format="@" v:langID="1033"/>
				<v:cp v:nameU="Duration" v:lbl="Duration" v:type="2" v:langID="1033"/>
				<v:cp v:nameU="Resources" v:lbl="Resources" v:langID="1033"/>
			</v:custProps>
			<v:userDefs>
				<v:ud v:nameU="AntiScale" v:val="VT0(1):26"/>
				<v:ud v:nameU="visVersion" v:val="VT0(15):26"/>
			</v:userDefs>
			<rect x="0" y="538.583" width="56.6929" height="56.6929" class="st1"/>
		</g>
		<g id="shape17-16" v:mID="17" v:groupContext="shape" transform="translate(694.488,-70.8661)">
			<title>Process.17</title>
			<v:userDefs>
				<v:ud v:nameU="visDescription" v:val="VT4(Use to add a process to your system diagram.)"/>
				<v:ud v:nameU="visVersion" v:val="VT0(15):26"/>
			</v:userDefs>
			<rect x="0" y="554.776" width="72" height="40.5" class="st2"/>
		</g>
		<g id="group21-18" transform="translate(595.276,-70.8661)" v:mID="21" v:groupContext="group" v:layerMember="0">
			<v:custProps>
				<v:cp v:nameU="Cost" v:lbl="Cost" v:type="7" v:format="@" v:langID="1033"/>
				<v:cp v:nameU="Duration" v:lbl="Duration" v:type="2" v:langID="1033"/>
				<v:cp v:nameU="Resources" v:lbl="Resources" v:langID="1033"/>
			</v:custProps>
			<v:userDefs>
				<v:ud v:nameU="ControlY" v:val="VT0(0.53740157480315):24"/>
				<v:ud v:nameU="ScaleFactor" v:val="VT0(1):26"/>
				<v:ud v:nameU="visVersion" v:val="VT0(15):26"/>
			</v:userDefs>
			<title>Entity 2</title>
			<g id="shape22-19" v:mID="22" v:groupContext="shape" v:layerMember="0" transform="translate(0,-38.6929)">
				<title>Sheet.22</title>
				<rect x="0" y="577.276" width="56.6929" height="18" class="st1"/>
			</g>
			<g id="shape23-21" v:mID="23" v:groupContext="shape" v:layerMember="0">
				<title>Sheet.23</title>
				<rect x="0" y="556.583" width="56.6929" height="38.6929" class="st1"/>
			</g>
		</g>
		<g id="group47-23" transform="translate(44.7932,-172.098)" v:mID="47" v:groupContext="group">
			<title>Sheet.47</title>
			<g id="shape5-24" v:mID="5" v:groupContext="shape" transform="translate(58.8952,-160.599)">
				<title>Process.5</title>
				<desc>Wczytanie danych</desc>
				<v:userDefs>
					<v:ud v:nameU="visDescription" v:val="VT4(Use to add a process to your system diagram.)"/>
					<v:ud v:nameU="visVersion" v:val="VT0(15):26"/>
				</v:userDefs>
				<v:textBlock v:margins="rect(4,4,4,4)" v:tabSpace="42.5197"/>
				<v:textRect cx="51.2573" cy="553.819" width="102.52" height="82.9134"/>
				<rect x="0" y="512.362" width="102.515" height="82.9134" class="st2"/>
				<text x="6.96" y="557.42" class="st4" v:langID="1045"><v:paragraph v:horizAlign="1"/><v:tabList/>Wczytanie danych</text>			</g>
			<g id="shape24-27" v:mID="24" v:groupContext="shape" transform="translate(0,-181.806)">
				<title>Document</title>
				<desc>Dane medyczne</desc>
				<v:userDefs>
					<v:ud v:nameU="msvShapeCategories" v:prompt="" v:val="VT4(Icon)"/>
					<v:ud v:nameU="visVersion" v:prompt="" v:val="VT0(15):26"/>
				</v:userDefs>
				<v:textBlock v:margins="rect(2,2,2,2)" v:tabSpace="42.5197"/>
				<v:textRect cx="18.9783" cy="544.233" width="70.85" height="40.5"/>
				<path d="M6.43 586.42 L6.43 585.15 L27 585.15 L27 586.42 L6.43 586.42 ZM6.43 581.35 L6.43 580.09 L27 580.09 L27 581.35
							 L6.43 581.35 ZM6.43 576.29 L6.43 575.03 L27 575.03 L27 576.29 L6.43 576.29 ZM6.43 571.23 L6.43 569.96
							 L27 569.96 L27 571.23 L6.43 571.23 ZM6.43 566.17 L6.43 564.9 L19.34 564.9 L19.34 566.17 L6.43 566.17
							 ZM30.86 592.74 L30.86 564.9 L23.15 564.9 L23.15 557.31 L2.57 557.31 L2.57 592.74 L30.86 592.74 ZM30.54
							 563.63 L24.43 557.62 L24.43 563.63 L30.54 563.63 ZM25.4 554.78 L33.43 562.69 L33.43 595.28 L0 595.28
							 L0 554.78 L25.4 554.78 Z" class="st5"/>
				<text x="-14.45" y="547.23" class="st6" v:langID="1045"><v:paragraph/><v:tabList/>Dane medyczne</text>			</g>
			<g id="shape25-30" v:mID="25" v:groupContext="shape" transform="translate(186.872,-161.345)">
				<title>Process.25</title>
				<desc>Podział na cechy i klasy</desc>
				<v:userDefs>
					<v:ud v:nameU="visDescription" v:val="VT4(Use to add a process to your system diagram.)"/>
					<v:ud v:nameU="visVersion" v:val="VT0(15):26"/>
				</v:userDefs>
				<v:textBlock v:margins="rect(4,4,4,4)" v:tabSpace="42.5197"/>
				<v:textRect cx="51.2573" cy="553.819" width="102.52" height="82.9134"/>
				<rect x="0" y="512.362" width="102.515" height="82.9134" class="st2"/>
				<text x="11.07" y="550.22" class="st4" v:langID="1045"><v:paragraph v:horizAlign="1"/><v:tabList/>Podział na cechy <v:newlineChar/><tspan
							x="36.48" dy="1.2em" class="st7">i klasy</tspan></text>			</g>
			<g id="shape26-34" v:mID="26" v:groupContext="shape" transform="translate(442.826,-161.345)">
				<title>Process.26</title>
				<desc>Standaryzacja</desc>
				<v:userDefs>
					<v:ud v:nameU="visDescription" v:val="VT4(Use to add a process to your system diagram.)"/>
					<v:ud v:nameU="visVersion" v:val="VT0(15):26"/>
				</v:userDefs>
				<v:textBlock v:margins="rect(4,4,4,4)" v:tabSpace="42.5197"/>
				<v:textRect cx="51.2573" cy="553.819" width="102.52" height="82.9134"/>
				<rect x="0" y="512.362" width="102.515" height="82.9134" class="st2"/>
				<text x="17.54" y="557.42" class="st4" v:langID="1045"><v:paragraph v:horizAlign="1"/><v:tabList/>Standaryzacja</text>			</g>
			<g id="shape27-37" v:mID="27" v:groupContext="shape" v:layerMember="1" transform="translate(161.41,-195.343)">
				<title>Dynamic connector</title>
				<path d="M0 588.19 L19.95 588.19" class="st8"/>
			</g>
			<g id="shape28-43" v:mID="28" v:groupContext="shape" v:layerMember="1" transform="translate(289.387,-195.716)">
				<title>Dynamic connector.28</title>
				<path d="M0 588.19 L19.95 588.19" class="st8"/>
			</g>
			<g id="shape29-48" v:mID="29" v:groupContext="shape" transform="translate(314.849,-161.345)">
				<title>Process.29</title>
				<desc>Podział na zbiór testowy i treningowy</desc>
				<v:userDefs>
					<v:ud v:nameU="visDescription" v:val="VT4(Use to add a process to your system diagram.)"/>
					<v:ud v:nameU="visVersion" v:val="VT0(15):26"/>
				</v:userDefs>
				<v:textBlock v:margins="rect(4,4,4,4)" v:tabSpace="42.5197"/>
				<v:textRect cx="51.2573" cy="553.819" width="102.52" height="82.9134"/>
				<rect x="0" y="512.362" width="102.515" height="82.9134" class="st2"/>
				<text x="12.84" y="543.02" class="st4" v:langID="1045"><v:paragraph v:horizAlign="1"/><v:tabList/>Podział na zbiór <tspan
							x="31.74" dy="1.2em" class="st7">testowy <v:newlineChar/></tspan><tspan x="20.76" dy="1.2em"
							class="st7">i treningowy</tspan></text>			</g>
			<g id="shape30-53" v:mID="30" v:groupContext="shape" transform="translate(58.8952,-28.4528)">
				<title>Process.30</title>
				<desc>Redukcja wymiarowości</desc>
				<v:userDefs>
					<v:ud v:nameU="visDescription" v:val="VT4(Use to add a process to your system diagram.)"/>
					<v:ud v:nameU="visVersion" v:val="VT0(15):26"/>
				</v:userDefs>
				<v:textBlock v:margins="rect(4,4,4,4)" v:tabSpace="42.5197"/>
				<v:textRect cx="51.2573" cy="553.819" width="102.52" height="82.9134"/>
				<rect x="0" y="512.362" width="102.515" height="82.9134" class="st2"/>
				<text x="29.14" y="550.22" class="st4" v:langID="1045"><v:paragraph v:horizAlign="1"/><v:tabList/>Redukcja <tspan
							x="16.24" dy="1.2em" class="st7">wymiarowości</tspan></text>			</g>
			<g id="shape31-57" v:mID="31" v:groupContext="shape" transform="translate(186.872,-28.4528)">
				<title>Process.31</title>
				<desc>Klasyfikacja</desc>
				<v:userDefs>
					<v:ud v:nameU="visDescription" v:val="VT4(Use to add a process to your system diagram.)"/>
					<v:ud v:nameU="visVersion" v:val="VT0(15):26"/>
				</v:userDefs>
				<v:textBlock v:margins="rect(4,4,4,4)" v:tabSpace="42.5197"/>
				<v:textRect cx="51.2573" cy="553.819" width="102.52" height="82.9134"/>
				<rect x="0" y="512.362" width="102.515" height="82.9134" class="st2"/>
				<text x="23.17" y="557.42" class="st4" v:langID="1045"><v:paragraph v:horizAlign="1"/><v:tabList/>Klasyfikacja</text>			</g>
			<g id="shape32-60" v:mID="32" v:groupContext="shape" transform="translate(314.849,-28.4528)">
				<title>Process.32</title>
				<desc>Prezentowanie rezultatów</desc>
				<v:userDefs>
					<v:ud v:nameU="visDescription" v:val="VT4(Use to add a process to your system diagram.)"/>
					<v:ud v:nameU="visVersion" v:val="VT0(15):26"/>
				</v:userDefs>
				<v:textBlock v:margins="rect(4,4,4,4)" v:tabSpace="42.5197"/>
				<v:textRect cx="51.2573" cy="553.819" width="102.52" height="82.9134"/>
				<rect x="0" y="512.362" width="102.515" height="82.9134" class="st2"/>
				<text x="14.72" y="550.22" class="st4" v:langID="1045"><v:paragraph v:horizAlign="1"/><v:tabList/>Prezentowanie <tspan
							x="24.93" dy="1.2em" class="st7">rezultatów</tspan></text>			</g>
			<g id="shape33-64" v:mID="33" v:groupContext="shape" v:layerMember="1" transform="translate(494.083,-161.345)">
				<title>Dynamic connector.33</title>
				<path d="M0 595.28 L0 616.54 L-383.93 616.54 L-383.93 639.74" class="st8"/>
			</g>
			<g id="shape34-69" v:mID="34" v:groupContext="shape" v:layerMember="1" transform="translate(161.41,-62.8228)">
				<title>Dynamic connector.34</title>
				<path d="M0 588.19 L19.95 588.19" class="st8"/>
			</g>
			<g id="shape35-74" v:mID="35" v:groupContext="shape" v:layerMember="1" transform="translate(289.387,-62.8228)">
				<title>Dynamic connector.35</title>
				<path d="M0 588.19 L19.95 588.19" class="st8"/>
			</g>
			<g id="shape40-79" v:mID="40" v:groupContext="shape" transform="translate(460.357,-62.7697)">
				<title>Document.40</title>
				<desc>Jakość klasyfikacji Metryki</desc>
				<v:userDefs>
					<v:ud v:nameU="msvShapeCategories" v:prompt="" v:val="VT4(Icon)"/>
					<v:ud v:nameU="visVersion" v:prompt="" v:val="VT0(15):26"/>
				</v:userDefs>
				<v:textBlock v:margins="rect(2,2,2,2)" v:tabSpace="42.5197"/>
				<v:textRect cx="30.1609" cy="541.417" width="96.14" height="40.5"/>
				<path d="M6.43 586.42 L6.43 585.15 L27 585.15 L27 586.42 L6.43 586.42 ZM6.43 581.35 L6.43 580.09 L27 580.09 L27 581.35
							 L6.43 581.35 ZM6.43 576.29 L6.43 575.03 L27 575.03 L27 576.29 L6.43 576.29 ZM6.43 571.23 L6.43 569.96
							 L27 569.96 L27 571.23 L6.43 571.23 ZM6.43 566.17 L6.43 564.9 L19.34 564.9 L19.34 566.17 L6.43 566.17
							 ZM30.86 592.74 L30.86 564.9 L23.15 564.9 L23.15 557.31 L2.57 557.31 L2.57 592.74 L30.86 592.74 ZM30.54
							 563.63 L24.43 557.62 L24.43 563.63 L30.54 563.63 ZM25.4 554.78 L33.43 562.69 L33.43 595.28 L0 595.28
							 L0 554.78 L25.4 554.78 Z" class="st5"/>
				<text x="-15.9" y="538.38" class="st10" v:langID="1045"><v:paragraph v:indentFirst="-18" v:indentLeft="18"
							v:bullet="1"/><v:tabList/><tspan class="st7" v:isBullet="true">·</tspan> <tspan class="st11">Jakość klasyfikacji<v:newlineChar/></tspan><tspan
							x="-15.9" dy="1.215em" class="st7" v:isBullet="true">·</tspan> <tspan class="st11">Metryki</tspan></text>			</g>
			<g id="shape41-86" v:mID="41" v:groupContext="shape" transform="translate(460.357,0)">
				<title>Document.41</title>
				<desc>Wykresy</desc>
				<v:userDefs>
					<v:ud v:nameU="msvShapeCategories" v:prompt="" v:val="VT4(Icon)"/>
					<v:ud v:nameU="visVersion" v:prompt="" v:val="VT0(15):26"/>
				</v:userDefs>
				<v:textBlock v:margins="rect(2,2,2,2)" v:tabSpace="42.5197"/>
				<v:textRect cx="22.2266" cy="546.679" width="41.14" height="40.5"/>
				<path d="M6.43 586.42 L6.43 585.15 L27 585.15 L27 586.42 L6.43 586.42 ZM6.43 581.35 L6.43 580.09 L27 580.09 L27 581.35
							 L6.43 581.35 ZM6.43 576.29 L6.43 575.03 L27 575.03 L27 576.29 L6.43 576.29 ZM6.43 571.23 L6.43 569.96
							 L27 569.96 L27 571.23 L6.43 571.23 ZM6.43 566.17 L6.43 564.9 L19.34 564.9 L19.34 566.17 L6.43 566.17
							 ZM30.86 592.74 L30.86 564.9 L23.15 564.9 L23.15 557.31 L2.57 557.31 L2.57 592.74 L30.86 592.74 ZM30.54
							 563.63 L24.43 557.62 L24.43 563.63 L30.54 563.63 ZM25.4 554.78 L33.43 562.69 L33.43 595.28 L0 595.28
							 L0 554.78 L25.4 554.78 Z" class="st5"/>
				<text x="3.66" y="549.68" class="st6" v:langID="1045"><v:paragraph/><v:tabList/>Wykresy</text>			</g>
			<g id="shape43-89" v:mID="43" v:groupContext="shape" v:layerMember="1" transform="translate(33.4328,-194.97)">
				<title>Dynamic connector.43</title>
				<path d="M0 588.19 L19.95 588.19" class="st8"/>
			</g>
			<g id="shape44-94" v:mID="44" v:groupContext="shape" v:layerMember="1" transform="translate(417.364,-75.9331)">
				<title>Dynamic connector.44</title>
				<path d="M0 588.19 L37.48 588.19" class="st8"/>
			</g>
			<g id="shape45-99" v:mID="45" v:groupContext="shape" v:layerMember="1" transform="translate(417.364,-27.3898)">
				<title>Dynamic connector.45</title>
				<path d="M0 588.19 L37.48 588.19" class="st8"/>
			</g>
			<g id="shape46-104" v:mID="46" v:groupContext="shape" v:layerMember="1" transform="translate(417.364,-195.716)">
				<title>Dynamic connector.46</title>
				<path d="M0 588.19 L19.95 588.19" class="st8"/>
			</g>
		</g>
	</g>
</svg>
